/home/alpha/IdeaProjects/TechnicalBlogApplication-7f054445a973db7245f40d732655f618465cb116/src/main/java/technicalblog/service/PostService.java
/home/alpha/IdeaProjects/TechnicalBlogApplication-7f054445a973db7245f40d732655f618465cb116/src/main/java/technicalblog/repository/Postrepository.java
/home/alpha/IdeaProjects/TechnicalBlogApplication-7f054445a973db7245f40d732655f618465cb116/src/main/java/technicalblog/TechnicalBlogApplication.java
/home/alpha/IdeaProjects/TechnicalBlogApplication-7f054445a973db7245f40d732655f618465cb116/src/main/java/technicalblog/config/JpaConfig.java
/home/alpha/IdeaProjects/TechnicalBlogApplication-7f054445a973db7245f40d732655f618465cb116/src/main/java/technicalblog/service/UserService.java
/home/alpha/IdeaProjects/TechnicalBlogApplication-7f054445a973db7245f40d732655f618465cb116/src/main/java/technicalblog/controller/PostCtrl.java
/home/alpha/IdeaProjects/TechnicalBlogApplication-7f054445a973db7245f40d732655f618465cb116/src/main/java/technicalblog/controller/Home.java
/home/alpha/IdeaProjects/TechnicalBlogApplication-7f054445a973db7245f40d732655f618465cb116/src/main/java/technicalblog/Model/User.java
/home/alpha/IdeaProjects/TechnicalBlogApplication-7f054445a973db7245f40d732655f618465cb116/src/main/java/technicalblog/Model/Post.java
/home/alpha/IdeaProjects/TechnicalBlogApplication-7f054445a973db7245f40d732655f618465cb116/src/main/java/technicalblog/controller/Users.java
